^D:\USERS\ADMIN\C++STUFF\DONTTOUCH\KENGINESOURCE\KIMPORTER\X64\DEBUG\KIMPORTER.OBJ|D:\USERS\ADMIN\C++STUFF\DONTTOUCH\KENGINESOURCE\KIMPORTER\X64\DEBUG\STDAFX.OBJ
D:\USERS\ADMIN\C++STUFF\DONTTOUCH\KENGINESOURCE\BIN_X64\KIMPORTER.DLL
D:\USERS\ADMIN\C++STUFF\DONTTOUCH\KENGINESOURCE\BIN_X64\KIMPORTER.ILK
D:\USERS\ADMIN\C++STUFF\DONTTOUCH\KENGINESOURCE\BIN_X64\KIMPORTER.PDB
