^D:\USERS\ADMIN\C++STUFF\DONTTOUCH\KENGINESOURCE\KENGINE\STDAFX.CPP
/c /ZI /nologo /W3 /WX- /diagnostics:classic /sdl /Od /D _DEBUG /D KENGINE_EXPORTS /D _WINDOWS /D _USRDLL /D _WINDLL /D _UNICODE /D UNICODE /Gm /EHsc /RTC1 /MDd /GS /fp:precise /permissive- /Zc:wchar_t /Zc:forScope /Zc:inline /Yc"stdafx.h" /Fp"X64\DEBUG\KENGINE.PCH" /Fo"X64\DEBUG\\" /Fd"X64\DEBUG\VC141.PDB" /Gd /TP D:\USERS\ADMIN\C++STUFF\DONTTOUCH\KENGINESOURCE\KENGINE\STDAFX.CPP
^D:\USERS\ADMIN\C++STUFF\DONTTOUCH\KENGINESOURCE\KENGINE\DLLMAIN.CPP
/c /ZI /nologo /W3 /WX- /diagnostics:classic /sdl /Od /D _DEBUG /D KENGINE_EXPORTS /D _WINDOWS /D _USRDLL /D _WINDLL /D _UNICODE /D UNICODE /Gm /EHsc /RTC1 /MDd /GS /fp:precise /permissive- /Zc:wchar_t /Zc:forScope /Zc:inline /Yu"stdafx.h" /Fp"X64\DEBUG\KENGINE.PCH" /Fo"X64\DEBUG\\" /Fd"X64\DEBUG\VC141.PDB" /Gd /TP D:\USERS\ADMIN\C++STUFF\DONTTOUCH\KENGINESOURCE\KENGINE\DLLMAIN.CPP
^D:\USERS\ADMIN\C++STUFF\DONTTOUCH\KENGINESOURCE\KENGINE\KENGINE.CPP
/c /ZI /nologo /W3 /WX- /diagnostics:classic /sdl /Od /D _DEBUG /D KENGINE_EXPORTS /D _WINDOWS /D _USRDLL /D _WINDLL /D _UNICODE /D UNICODE /Gm /EHsc /RTC1 /MDd /GS /fp:precise /permissive- /Zc:wchar_t /Zc:forScope /Zc:inline /Yu"stdafx.h" /Fp"X64\DEBUG\KENGINE.PCH" /Fo"X64\DEBUG\\" /Fd"X64\DEBUG\VC141.PDB" /Gd /TP D:\USERS\ADMIN\C++STUFF\DONTTOUCH\KENGINESOURCE\KENGINE\KENGINE.CPP
