^D:\USERS\ADMIN\C++STUFF\DONTTOUCH\KENGINESOURCE\KCORE\X64\DEBUG\DLLMAIN.OBJ|D:\USERS\ADMIN\C++STUFF\DONTTOUCH\KENGINESOURCE\KCORE\X64\DEBUG\KCACHEDMEMORYSTREAM.OBJ|D:\USERS\ADMIN\C++STUFF\DONTTOUCH\KENGINESOURCE\KCORE\X64\DEBUG\KCORE.OBJ|D:\USERS\ADMIN\C++STUFF\DONTTOUCH\KENGINESOURCE\KCORE\X64\DEBUG\KFILE.OBJ|D:\USERS\ADMIN\C++STUFF\DONTTOUCH\KENGINESOURCE\KCORE\X64\DEBUG\KRAWMESH.OBJ|D:\USERS\ADMIN\C++STUFF\DONTTOUCH\KENGINESOURCE\KCORE\X64\DEBUG\STDAFX.OBJ
C:\WINDOWS\GLOBALIZATION\SORTING\SORTDEFAULT.NLS
C:\PROGRAM FILES (X86)\WINDOWS KITS\10\LIB\10.0.16299.0\UM\X64\KERNEL32.LIB
C:\PROGRAM FILES (X86)\WINDOWS KITS\10\LIB\10.0.16299.0\UM\X64\USER32.LIB
C:\PROGRAM FILES (X86)\WINDOWS KITS\10\LIB\10.0.16299.0\UM\X64\GDI32.LIB
C:\PROGRAM FILES (X86)\WINDOWS KITS\10\LIB\10.0.16299.0\UM\X64\WINSPOOL.LIB
C:\PROGRAM FILES (X86)\WINDOWS KITS\10\LIB\10.0.16299.0\UM\X64\COMDLG32.LIB
C:\PROGRAM FILES (X86)\WINDOWS KITS\10\LIB\10.0.16299.0\UM\X64\ADVAPI32.LIB
C:\PROGRAM FILES (X86)\WINDOWS KITS\10\LIB\10.0.16299.0\UM\X64\SHELL32.LIB
C:\PROGRAM FILES (X86)\WINDOWS KITS\10\LIB\10.0.16299.0\UM\X64\OLE32.LIB
C:\PROGRAM FILES (X86)\WINDOWS KITS\10\LIB\10.0.16299.0\UM\X64\OLEAUT32.LIB
C:\PROGRAM FILES (X86)\WINDOWS KITS\10\LIB\10.0.16299.0\UM\X64\UUID.LIB
C:\PROGRAM FILES (X86)\WINDOWS KITS\10\LIB\10.0.16299.0\UM\X64\ODBC32.LIB
C:\PROGRAM FILES (X86)\WINDOWS KITS\10\LIB\10.0.16299.0\UM\X64\ODBCCP32.LIB
D:\USERS\ADMIN\C++STUFF\DONTTOUCH\KENGINESOURCE\KCORE\X64\DEBUG\DLLMAIN.OBJ
D:\USERS\ADMIN\C++STUFF\DONTTOUCH\KENGINESOURCE\KCORE\X64\DEBUG\KCACHEDMEMORYSTREAM.OBJ
D:\USERS\ADMIN\C++STUFF\DONTTOUCH\KENGINESOURCE\KCORE\X64\DEBUG\KCORE.OBJ
D:\USERS\ADMIN\C++STUFF\DONTTOUCH\KENGINESOURCE\KCORE\X64\DEBUG\KFILE.OBJ
D:\USERS\ADMIN\C++STUFF\DONTTOUCH\KENGINESOURCE\KCORE\X64\DEBUG\KRAWMESH.OBJ
D:\USERS\ADMIN\C++STUFF\DONTTOUCH\KENGINESOURCE\KCORE\X64\DEBUG\STDAFX.OBJ
C:\WINDOWS\SYSTEM32\TZRES.DLL
C:\PROGRAM FILES (X86)\MICROSOFT VISUAL STUDIO\2017\COMMUNITY\VC\TOOLS\MSVC\14.12.25827\LIB\X64\MSVCPRTD.LIB
C:\PROGRAM FILES (X86)\MICROSOFT VISUAL STUDIO\2017\COMMUNITY\VC\TOOLS\MSVC\14.12.25827\LIB\X64\MSVCRTD.LIB
C:\PROGRAM FILES (X86)\MICROSOFT VISUAL STUDIO\2017\COMMUNITY\VC\TOOLS\MSVC\14.12.25827\LIB\X64\OLDNAMES.LIB
C:\PROGRAM FILES (X86)\MICROSOFT VISUAL STUDIO\2017\COMMUNITY\VC\TOOLS\MSVC\14.12.25827\LIB\X64\VCRUNTIMED.LIB
C:\PROGRAM FILES (X86)\WINDOWS KITS\10\LIB\10.0.16299.0\UCRT\X64\UCRTD.LIB
